<?xml version="1.0" encoding="utf-8"?><!-- Uploaded to: SVG Repo, www.svgrepo.com, Generator: SVG Repo Mixer Tools -->
<svg width="800px" height="800px" viewBox="0 0 24 24" fill="none" xmlns="http://www.w3.org/2000/svg">
<path d="M8 15C5.79086 15 4 16.7909 4 19V21H20V19C20 16.7909 18.2091 15 16 15H12M12 3C9.79086 3 8 4.79086 8 7C8 9.20914 9.79086 11 12 11C14.2091 11 16 9.20914 16 7C16 6.27143 15.8052 5.58835 15.4649 5" stroke="#0d6252" stroke-width="1.5" stroke-linecap="round" stroke-linejoin="round"/>
</svg>